<?xml version="1.0" encoding="utf-8"?>
<!-- Generator: Adobe Illustrator 16.0.0, SVG Export Plug-In . SVG Version: 6.00 Build 0)  -->
<!DOCTYPE svg PUBLIC "-//W3C//DTD SVG 1.1//EN" "http://www.w3.org/Graphics/SVG/1.1/DTD/svg11.dtd">
<svg version="1.1" id="Layer_1" xmlns="http://www.w3.org/2000/svg" xmlns:xlink="http://www.w3.org/1999/xlink" x="0px" y="0px"
	 width="51px" height="51px" viewBox="0 0 51 51" enable-background="new 0 0 51 51" xml:space="preserve">
<g id="replay_white_bottom">
	<rect fill="#FFFFFF" width="51" height="51"/>
	<path d="M38.5,31.297l6.979-6.616h-5.021c-0.431-7.889-6.964-14.18-14.958-14.18c-8.271,0-15,6.729-15,15c0,8.271,6.729,15,15,15
		c4.008,0,7.775-1.562,10.609-4.396l-2.83-2.828c-2.077,2.078-4.84,3.224-7.779,3.224c-6.065,0-11-4.935-11-11
		c0-6.065,4.935-11,11-11c5.789,0,10.536,4.497,10.958,10.18h-4.937L38.5,31.297z"/>
</g>
</svg>
