<svg version="1.1" id="Layer_1" xmlns="http://www.w3.org/2000/svg" xmlns:xlink="http://www.w3.org/1999/xlink" x="0px" y="0px"
   width="26px" height="26.001px" viewBox="0 0 26 26.001" enable-background="new 0 0 26 26.001" xml:space="preserve">
<path fill="#FFFFFF" d="M5.404,7.534c1.175,0,2.129-0.953,2.129-2.128S6.58,3.276,5.404,3.276c-1.176,0-2.127,0.954-2.127,2.129
  S4.229,7.534,5.404,7.534 M20.595,7.534c1.176,0,2.129-0.953,2.129-2.128s-0.953-2.129-2.129-2.129
  c-1.175,0-2.127,0.954-2.127,2.129S19.419,7.534,20.595,7.534 M5.404,22.724c1.175,0,2.129-0.953,2.129-2.128
  c0-1.176-0.954-2.129-2.129-2.129c-1.176,0-2.127,0.953-2.127,2.129C3.277,21.771,4.229,22.724,5.404,22.724 M20.595,22.724
  c1.176,0,2.129-0.953,2.129-2.128c0-1.176-0.953-2.129-2.129-2.129c-1.175,0-2.127,0.953-2.127,2.129
  C18.468,21.771,19.419,22.724,20.595,22.724 M0,0h26v26.001H0V0z"/>
</svg>
